﻿ID_TrybPrzyjecia;Rok;ID_Tryb;Opis
1;2010;1;PRZYJ¦śCIE PLANOWE
2;2010;2;PRZYJ¦śCIE W TRYBIE NAG+üYM W WYNIKU PRZEKAZANIA PRZEZ ZESP+ô+ü RATOWNICTWA MEDYCZNEGO
3;2010;3;PRZYJ¦śCIE W TRYBIE NAG+üYM - INNE PRZYPADKI
4;2010;4;PRZYJ¦śCIE W TRYBIE NAG+üYM BEZ SKIEROWANIA
5;2010;5;PRZYJ¦śCIE NOWORODKA W WYNIKU PORODU W TYM SZPITALU
6;2010;6;PRZYJ¦śCIE PLANOWE NA PODSTAWIE SKIEROWANIA
7;2010;7;PRZYJ¦śCIE PLANOWE OSOBY, KT+ôRA SKORZYSTA+üA ZE +ÜWIADCZE+â OPIEKI ZDROWOTNEJ POZA KOLEJNO+ÜCI¦ä, ZGODNIE Z UPRAWNIENIAMI PRZYS+üUGUJ¦äCYMI JEJ NA PODSTAWIE USTAWY
8;2009;1;PRZYJ¦śCIE PLANOWE
9;2009;2;PRZYJ¦śCIE W TRYBIE NAG+üYM ZE SKIEROWANIEM Z POMOCY DORA+¦NEJ
10;2009;3;PRZYJ¦śCIE W TRYBIE NAG+üYM ZE SKIEROWANIEM INNYM NI+¬ Z POMOCY DORA+¦NEJ
11;2009;4;PRZYJ¦śCIE W TRYBIE NAG+üYM BEZ SKIEROWANIA
12;2011;2;PRZYJ¦śCIE W TRYBIE NAG+üYM W WYNIKU PRZEKAZANIA PRZEZ ZESP+ô+ü RATOWNICTWA MEDYCZNEGO
13;2011;3;PRZYJ¦śCIE W TRYBIE NAG+üYM - INNE PRZYPADKI
14;2011;5;PRZYJ¦śCIE NOWORODKA W WYNIKU PORODU W TYM SZPITALU
15;2011;6;PRZYJ¦śCIE PLANOWE NA PODSTAWIE SKIEROWANIA
16;2011;7;PRZYJ¦śCIE PLANOWE OSOBY, KT+ôRA SKORZYSTA+üA ZE +ÜWIADCZE+â OPIEKI ZDROWOTNEJ POZA KOLEJNO+ÜCI¦ä, ZGODNIE Z UPRAWNIENIAMI PRZYS+üUGUJ¦äCYMI JEJ NA PODSTAWIE USTAWY
17;2012;2;PRZYJ¦śCIE W TRYBIE NAG+üYM W WYNIKU PRZEKAZANIA PRZEZ ZESP+ô+ü RATOWNICTWA MEDYCZNEGO
18;2012;2;PRZYJ¦śCIE W TRYBIE NAG+üYM
19;2012;3;PRZYJ¦śCIE W TRYBIE NAG+üYM - INNE PRZYPADKI
20;2012;3;PRZYJ¦śCIE PLANOWE OSOBY, KT+ôRA SKORZYSTA+üA ZE +ÜWIADCZE+â OPIEKI ZDROWOTNEJ POZA KOLEJNO+ÜCI¦ä, ZGODNIE Z UPRAWNIENIAMI PRZYS+üUGUJ¦äCYMI JEJ NA PODSTAWIE USTAWY
21;2012;6;PRZYJ¦śCIE PLANOWE NA PODSTAWIE SKIEROWANIA
22;2012;6;PRZYJ¦śCIE OSOBY PODLEGAJ¦äCEJ OBOWI¦äZKOWEMU LECZENIU
23;2012;7;PRZYJ¦śCIE PLANOWE OSOBY, KT+ôRA SKORZYSTA+üA ZE +ÜWIADCZE+â OPIEKI ZDROWOTNEJ POZA KOLEJNO+ÜCI¦ä, ZGODNIE Z UPRAWNIENIAMI PRZYS+üUGUJ¦äCYMI JEJ NA PODSTAWIE USTAWY
24;2012;7;PRZYJ¦śCIE PRZYMUSOWE
25;2012;5;PRZYJ¦śCIE NOWORODKA W WYNIKU PORODU W TYM SZPITALU
26;2012;5;PRZYJ¦śCIE PLANOWE W PRZYPADKACH, W KT+ôRYCH SKIEROWANIE NIE JEST WYMAGANE ZGODNIE Z ART. 57 UST. 2 USTAWY
27;2012;8;PRZENIESIENIE Z INNEGO SZPITALA
28;2012;9;PRZYJ¦śCIE OSOBY PODLEGAJ¦äCEJ OBOWI¦äZKOWEMU LECZENIU
29;2012;10;PRZYJ¦śCIE PRZYMUSOWE
30;2013;2;PRZYJ¦śCIE W TRYBIE NAG+üYM W WYNIKU PRZEKAZANIA PRZEZ ZESP+ô+ü RATOWNICTWA MEDYCZNEGO
31;2013;2;PRZYJ¦śCIE W TRYBIE NAG+üYM
32;2013;3;PRZYJ¦śCIE W TRYBIE NAG+üYM - INNE PRZYPADKI
33;2013;3;PRZYJ¦śCIE PLANOWE OSOBY, KT+ôRA SKORZYSTA+üA ZE +ÜWIADCZE+â OPIEKI ZDROWOTNEJ POZA KOLEJNO+ÜCI¦ä, ZGODNIE Z UPRAWNIENIAMI PRZYS+üUGUJ¦äCYMI JEJ NA PODSTAWIE USTAWY
34;2013;5;PRZYJ¦śCIE NOWORODKA W WYNIKU PORODU W TYM SZPITALU
35;2013;5;PRZYJ¦śCIE PLANOWE W PRZYPADKACH, W KT+ôRYCH SKIEROWANIE NIE JEST WYMAGANE ZGODNIE Z ART. 57 UST. 2 USTAWY
36;2013;6;PRZYJ¦śCIE PLANOWE NA PODSTAWIE SKIEROWANIA
37;2013;6;PRZYJ¦śCIE OSOBY PODLEGAJ¦äCEJ OBOWI¦äZKOWEMU LECZENIU
38;2013;7;PRZYJ¦śCIE PLANOWE OSOBY, KT+ôRA SKORZYSTA+üA ZE +ÜWIADCZE+â OPIEKI ZDROWOTNEJ POZA KOLEJNO+ÜCI¦ä, ZGODNIE Z UPRAWNIENIAMI PRZYS+üUGUJ¦äCYMI JEJ NA PODSTAWIE USTAWY
39;2013;7;PRZYJ¦śCIE PRZYMUSOWE
40;2013;8;PRZENIESIENIE Z INNEGO SZPITALA
41;2013;9;PRZYJ¦śCIE OSOBY PODLEGAJ¦äCEJ OBOWI¦äZKOWEMU LECZENIU
42;2013;10;PRZYJ¦śCIE PRZYMUSOWE
43;2014;2;PRZYJ¦śCIE W TRYBIE NAG+üYM W WYNIKU PRZEKAZANIA PRZEZ ZESP+ô+ü RATOWNICTWA MEDYCZNEGO
44;2014;2;PRZYJ¦śCIE W TRYBIE NAG+üYM
45;2014;3;PRZYJ¦śCIE W TRYBIE NAG+üYM - INNE PRZYPADKI
46;2014;3;PRZYJ¦śCIE PLANOWE OSOBY, KT+ôRA SKORZYSTA+üA ZE +ÜWIADCZE+â OPIEKI ZDROWOTNEJ POZA KOLEJNO+ÜCI¦ä, ZGODNIE Z UPRAWNIENIAMI PRZYS+üUGUJ¦äCYMI JEJ NA PODSTAWIE USTAWY
47;2014;5;PRZYJ¦śCIE NOWORODKA W WYNIKU PORODU W TYM SZPITALU
48;2014;5;PRZYJ¦śCIE PLANOWE W PRZYPADKACH, W KT+ôRYCH SKIEROWANIE NIE JEST WYMAGANE ZGODNIE Z ART. 57 UST. 2 USTAWY
49;2014;6;PRZYJ¦śCIE PLANOWE NA PODSTAWIE SKIEROWANIA
50;2014;6;PRZYJ¦śCIE OSOBY PODLEGAJ¦äCEJ OBOWI¦äZKOWEMU LECZENIU
51;2014;7;PRZYJ¦śCIE PLANOWE OSOBY, KT+ôRA SKORZYSTA+üA ZE +ÜWIADCZE+â OPIEKI ZDROWOTNEJ POZA KOLEJNO+ÜCI¦ä, ZGODNIE Z UPRAWNIENIAMI PRZYS+üUGUJ¦äCYMI JEJ NA PODSTAWIE USTAWY
52;2014;7;PRZYJ¦śCIE PRZYMUSOWE
53;2014;8;PRZENIESIENIE Z INNEGO SZPITALA
54;2014;9;PRZYJ¦śCIE OSOBY PODLEGAJ¦äCEJ OBOWI¦äZKOWEMU LECZENIU
55;2014;10;PRZYJ¦śCIE PRZYMUSOWE
56;2015;2;PRZYJ¦śCIE W TRYBIE NAG+üYM W WYNIKU PRZEKAZANIA PRZEZ ZESP+ô+ü RATOWNICTWA MEDYCZNEGO
57;2015;3;PRZYJ¦śCIE W TRYBIE NAG+üYM - INNE PRZYPADKI
58;2015;5;PRZYJ¦śCIE NOWORODKA W WYNIKU PORODU W TYM SZPITALU
59;2015;6;PRZYJ¦śCIE PLANOWE NA PODSTAWIE SKIEROWANIA
60;2015;7;PRZYJ¦śCIE PLANOWE OSOBY, KT+ôRA SKORZYSTA+üA ZE +ÜWIADCZE+â OPIEKI ZDROWOTNEJ POZA KOLEJNO+ÜCI¦ä, ZGODNIE Z UPRAWNIENIAMI PRZYS+üUGUJ¦äCYMI JEJ NA PODSTAWIE USTAWY
61;2015;8;PRZENIESIENIE Z INNEGO SZPITALA
62;2015;9;PRZYJ¦śCIE OSOBY PODLEGAJ¦äCEJ OBOWI¦äZKOWEMU LECZENIU
63;2015;10;PRZYJ¦śCIE PRZYMUSOWE
64;2015;11;PRZYJ¦śCIE NA PODSTAWIE KARTY DIAGNOSTYKI I LECZENIA ONKOLOGICZNEGO
65;2016;2;PRZYJ¦śCIE W TRYBIE NAG+üYM W WYNIKU PRZEKAZANIA PRZEZ ZESP+ô+ü RATOWNICTWA MEDYCZNEGO
66;2016;3;PRZYJ¦śCIE W TRYBIE NAG+üYM - INNE PRZYPADKI
67;2016;5;PRZYJ¦śCIE NOWORODKA W WYNIKU PORODU W TYM SZPITALU
68;2016;6;PRZYJ¦śCIE PLANOWE NA PODSTAWIE SKIEROWANIA
69;2016;7;PRZYJ¦śCIE PLANOWE OSOBY, KT+ôRA SKORZYSTA+üA ZE +ÜWIADCZE+â OPIEKI ZDROWOTNEJ POZA KOLEJNO+ÜCI¦ä, ZGODNIE Z UPRAWNIENIAMI PRZYS+üUGUJ¦äCYMI JEJ NA PODSTAWIE USTAWY
70;2016;8;PRZENIESIENIE Z INNEGO SZPITALA
71;2016;9;PRZYJ¦śCIE OSOBY PODLEGAJ¦äCEJ OBOWI¦äZKOWEMU LECZENIU
72;2016;10;PRZYJ¦śCIE PRZYMUSOWE
73;2016;11;PRZYJ¦śCIE NA PODSTAWIE KARTY DIAGNOSTYKI I LECZENIA ONKOLOGICZNEGO
